
{
  "header": {
    "reportVersion": 1,
    "event": "Allocation failed - JavaScript heap out of memory",
    "trigger": "FatalError",
    "filename": "report.20200720.114502.13208.0.001.json",
    "dumpEventTime": "2020-07-20T11:45:02Z",
    "dumpEventTimeStamp": "1595225702949",
    "processId": 13208,
    "cwd": "E:\\xampp\\htdocs\\litegait\\Front",
    "commandLine": [
      "node",
      "C:\\Users\\ankitp\\AppData\\Roaming\\npm\\\\node_modules\\@angular\\cli\\bin\\ng",
      "serve",
      "--port",
      "4400"
    ],
    "nodejsVersion": "v12.16.0",
    "wordSize": 64,
    "arch": "x64",
    "platform": "win32",
    "componentVersions": {
      "node": "12.16.0",
      "v8": "7.8.279.23-node.31",
      "uv": "1.34.0",
      "zlib": "1.2.11",
      "brotli": "1.0.7",
      "ares": "1.15.0",
      "modules": "72",
      "nghttp2": "1.40.0",
      "napi": "5",
      "llhttp": "2.0.4",
      "http_parser": "2.9.3",
      "openssl": "1.1.1d",
      "cldr": "35.1",
      "icu": "64.2",
      "tz": "2019c",
      "unicode": "12.1"
    },
    "release": {
      "name": "node",
      "lts": "Erbium",
      "headersUrl": "https://nodejs.org/download/release/v12.16.0/node-v12.16.0-headers.tar.gz",
      "sourceUrl": "https://nodejs.org/download/release/v12.16.0/node-v12.16.0.tar.gz",
      "libUrl": "https://nodejs.org/download/release/v12.16.0/win-x64/node.lib"
    },
    "osName": "Windows_NT",
    "osRelease": "10.0.17134",
    "osVersion": "Windows 10 Enterprise",
    "osMachine": "x86_64",
    "cpus": [
      {
        "model": "Intel(R) Core(TM) i5-6402P CPU @ 2.80GHz",
        "speed": 2808,
        "user": 190031,
        "nice": 0,
        "sys": 91859,
        "idle": 997343,
        "irq": 9281
      },
      {
        "model": "Intel(R) Core(TM) i5-6402P CPU @ 2.80GHz",
        "speed": 2808,
        "user": 181046,
        "nice": 0,
        "sys": 86046,
        "idle": 1011953,
        "irq": 937
      },
      {
        "model": "Intel(R) Core(TM) i5-6402P CPU @ 2.80GHz",
        "speed": 2808,
        "user": 178562,
        "nice": 0,
        "sys": 74031,
        "idle": 1026453,
        "irq": 671
      },
      {
        "model": "Intel(R) Core(TM) i5-6402P CPU @ 2.80GHz",
        "speed": 2808,
        "user": 199843,
        "nice": 0,
        "sys": 80578,
        "idle": 998625,
        "irq": 1031
      }
    ],
    "networkInterfaces": [
      {
        "name": "Ethernet",
        "internal": false,
        "mac": "1c:1b:0d:13:b0:e4",
        "address": "fe80::4d8a:7c45:4e8b:fdbd",
        "netmask": "ffff:ffff:ffff:ffff::",
        "family": "IPv6",
        "scopeid": 13
      },
      {
        "name": "Ethernet",
        "internal": false,
        "mac": "1c:1b:0d:13:b0:e4",
        "address": "192.168.1.80",
        "netmask": "255.255.255.0",
        "family": "IPv4"
      },
      {
        "name": "Loopback Pseudo-Interface 1",
        "internal": true,
        "mac": "00:00:00:00:00:00",
        "address": "::1",
        "netmask": "ffff:ffff:ffff:ffff:ffff:ffff:ffff:ffff",
        "family": "IPv6",
        "scopeid": 0
      },
      {
        "name": "Loopback Pseudo-Interface 1",
        "internal": true,
        "mac": "00:00:00:00:00:00",
        "address": "127.0.0.1",
        "netmask": "255.0.0.0",
        "family": "IPv4"
      }
    ],
    "host": "ankitpandey"
  },
  "javascriptStack": {
    "message": "No stack.",
    "stack": [
      "Unavailable."
    ]
  },
  "nativeStack": [
    {
      "pc": "0x00007ff7594419f9",
      "symbol": "std::basic_ostream<char,std::char_traits<char> >::operator<<+10873"
    },
    {
      "pc": "0x00007ff759445e1c",
      "symbol": "std::basic_ostream<char,std::char_traits<char> >::operator<<+28316"
    },
    {
      "pc": "0x00007ff759444dd8",
      "symbol": "std::basic_ostream<char,std::char_traits<char> >::operator<<+24152"
    },
    {
      "pc": "0x00007ff75954364b",
      "symbol": "v8::base::CPU::has_sse+38363"
    },
    {
      "pc": "0x00007ff759d5a11e",
      "symbol": "v8::Isolate::ReportExternalAllocationLimitReached+94"
    },
    {
      "pc": "0x00007ff759d421f1",
      "symbol": "v8::SharedArrayBuffer::Externalize+833"
    },
    {
      "pc": "0x00007ff759c0e74c",
      "symbol": "v8::internal::Heap::EphemeronKeyWriteBarrierFromCode+1436"
    },
    {
      "pc": "0x00007ff759c199a0",
      "symbol": "v8::internal::Heap::ProtectUnprotectedMemoryChunks+1312"
    },
    {
      "pc": "0x00007ff759c164c4",
      "symbol": "v8::internal::Heap::PageFlagsAreConsistent+3204"
    },
    {
      "pc": "0x00007ff759c0bce3",
      "symbol": "v8::internal::Heap::CollectGarbage+1283"
    },
    {
      "pc": "0x00007ff759c0a354",
      "symbol": "v8::internal::Heap::AddRetainedMap+2452"
    },
    {
      "pc": "0x00007ff759c2b53d",
      "symbol": "v8::internal::Factory::NewFillerObject+61"
    },
    {
      "pc": "0x00007ff759990caf",
      "symbol": "v8::internal::interpreter::JumpTableTargetOffsets::iterator::operator=+1295"
    },
    {
      "pc": "0x00007ff75a1a4fad",
      "symbol": "v8::internal::SetupIsolateDelegate::SetupHeap+546637"
    },
    {
      "pc": "0x000001b3fbbdca5a",
      "symbol": ""
    }
  ],
  "javascriptHeap": {
    "totalMemory": 2175074304,
    "totalCommittedMemory": 2175074304,
    "usedMemory": 2138717696,
    "availableMemory": 43727000,
    "memoryLimit": 2197815296,
    "heapSpaces": {
      "read_only_space": {
        "memorySize": 262144,
        "committedMemory": 262144,
        "capacity": 32808,
        "used": 32808,
        "available": 0
      },
      "new_space": {
        "memorySize": 20971520,
        "committedMemory": 20971520,
        "capacity": 10474560,
        "used": 1267528,
        "available": 9207032
      },
      "old_space": {
        "memorySize": 1889943552,
        "committedMemory": 1889943552,
        "capacity": 1886606576,
        "used": 1885302160,
        "available": 1304416
      },
      "code_space": {
        "memorySize": 3051520,
        "committedMemory": 3051520,
        "capacity": 2671648,
        "used": 2671648,
        "available": 0
      },
      "map_space": {
        "memorySize": 13897728,
        "committedMemory": 13897728,
        "capacity": 2757840,
        "used": 2757840,
        "available": 0
      },
      "large_object_space": {
        "memorySize": 246325248,
        "committedMemory": 246325248,
        "capacity": 246141424,
        "used": 246141424,
        "available": 0
      },
      "code_large_object_space": {
        "memorySize": 622592,
        "committedMemory": 622592,
        "capacity": 544288,
        "used": 544288,
        "available": 0
      },
      "new_large_object_space": {
        "memorySize": 0,
        "committedMemory": 0,
        "capacity": 10474560,
        "used": 0,
        "available": 10474560
      }
    }
  },
  "resourceUsage": {
    "userCpuSeconds": 146.281,
    "kernelCpuSeconds": 7.765,
    "cpuConsumptionPercent": 26.1983,
    "maxRss": 2658467840,
    "pageFaults": {
      "IORequired": 1215443,
      "IONotRequired": 0
    },
    "fsActivity": {
      "reads": 8080,
      "writes": 7
    }
  },
  "libuv": [
  ],
  "environmentVariables": {
    "=::": "::\\",
    "=E:": "E:\\xampp\\htdocs\\litegait\\Front",
    "ALLUSERSPROFILE": "C:\\ProgramData",
    "APPDATA": "C:\\Users\\ankitp\\AppData\\Roaming",
    "BROWSERSLIST_IGNORE_OLD_DATA": "1",
    "CommonProgramFiles": "C:\\Program Files\\Common Files",
    "CommonProgramFiles(x86)": "C:\\Program Files (x86)\\Common Files",
    "CommonProgramW6432": "C:\\Program Files\\Common Files",
    "COMPUTERNAME": "ANKITPANDEY",
    "ComSpec": "C:\\WINDOWS\\system32\\cmd.exe",
    "dp0": "C:\\Users\\ankitp\\AppData\\Roaming\\npm\\",
    "DriverData": "C:\\Windows\\System32\\Drivers\\DriverData",
    "HOMEDRIVE": "C:",
    "HOMEPATH": "\\Users\\ankitp",
    "LOCALAPPDATA": "C:\\Users\\ankitp\\AppData\\Local",
    "LOGONSERVER": "\\\\DC",
    "NUMBER_OF_PROCESSORS": "4",
    "OneDrive": "C:\\Users\\ankitp\\OneDrive",
    "OS": "Windows_NT",
    "Path": "C:\\Python36\\Scripts\\;C:\\Python36\\;C:\\ProgramData\\Oracle\\Java\\javapath;C:\\WINDOWS\\system32;C:\\WINDOWS;C:\\WINDOWS\\System32\\Wbem;C:\\WINDOWS\\System32\\WindowsPowerShell\\v1.0\\;E:\\xampp\\php;C:\\Program Files\\Git\\cmd;C:\\WINDOWS\\System32\\OpenSSH\\;C:\\Program Files\\gradle\\bin;C:\\Program Files\\nodejs\\;C:\\Program Files\\TortoiseSVN\\bin;\";C:\\Program Files\\MongoDB\\Server\\3.6\\bin\";C:\\Users\\ankitp\\AppData\\Roaming\\npm\\node_modules\\@angular\\cli\\bin;C:\\Users\\ankitp\\AppData\\Local\\Microsoft\\WindowsApps;C:\\Users\\ankitp\\AppData\\Roaming\\npm;C:\\Users\\ankitp\\AppData\\Local\\Programs\\Microsoft VS Code\\bin;C:\\Program Files\\MongoDB\\Server\\3.6\\bin;",
    "PATHEXT": ".COM;.EXE;.BAT;.CMD;.VBS;.VBE;.JSE;.WSF;.WSH;.MSC;.PY;.PYW",
    "PROCESSOR_ARCHITECTURE": "AMD64",
    "PROCESSOR_IDENTIFIER": "Intel64 Family 6 Model 94 Stepping 3, GenuineIntel",
    "PROCESSOR_LEVEL": "6",
    "PROCESSOR_REVISION": "5e03",
    "ProgramData": "C:\\ProgramData",
    "ProgramFiles": "C:\\Program Files",
    "ProgramFiles(x86)": "C:\\Program Files (x86)",
    "ProgramW6432": "C:\\Program Files",
    "PROMPT": "$P$G",
    "PSModulePath": "C:\\Program Files\\WindowsPowerShell\\Modules;C:\\WINDOWS\\system32\\WindowsPowerShell\\v1.0\\Modules",
    "PUBLIC": "C:\\Users\\Public",
    "SESSIONNAME": "Console",
    "SystemDrive": "C:",
    "SystemRoot": "C:\\WINDOWS",
    "TEMP": "C:\\Users\\ankitp\\AppData\\Local\\Temp",
    "TMP": "C:\\Users\\ankitp\\AppData\\Local\\Temp",
    "USERDNSDOMAIN": "OCTAL.COM",
    "USERDOMAIN": "OCTAL",
    "USERDOMAIN_ROAMINGPROFILE": "OCTAL",
    "USERNAME": "ankitp",
    "USERPROFILE": "C:\\Users\\ankitp",
    "windir": "C:\\WINDOWS",
    "_prog": "node"
  },
  "sharedObjects": [
    "C:\\Program Files\\nodejs\\node.exe",
    "C:\\WINDOWS\\SYSTEM32\\ntdll.dll",
    "C:\\WINDOWS\\System32\\KERNEL32.DLL",
    "C:\\WINDOWS\\System32\\KERNELBASE.dll",
    "C:\\WINDOWS\\System32\\WS2_32.dll",
    "C:\\WINDOWS\\System32\\RPCRT4.dll",
    "C:\\WINDOWS\\SYSTEM32\\dbghelp.dll",
    "C:\\WINDOWS\\System32\\PSAPI.DLL",
    "C:\\WINDOWS\\System32\\ADVAPI32.dll",
    "C:\\WINDOWS\\System32\\ucrtbase.dll",
    "C:\\WINDOWS\\System32\\msvcrt.dll",
    "C:\\WINDOWS\\System32\\sechost.dll",
    "C:\\WINDOWS\\SYSTEM32\\IPHLPAPI.DLL",
    "C:\\WINDOWS\\System32\\USER32.dll",
    "C:\\WINDOWS\\SYSTEM32\\USERENV.dll",
    "C:\\WINDOWS\\System32\\profapi.dll",
    "C:\\WINDOWS\\System32\\win32u.dll",
    "C:\\WINDOWS\\System32\\GDI32.dll",
    "C:\\WINDOWS\\System32\\gdi32full.dll",
    "C:\\WINDOWS\\System32\\msvcp_win.dll",
    "C:\\WINDOWS\\System32\\CRYPT32.dll",
    "C:\\WINDOWS\\System32\\MSASN1.dll",
    "C:\\WINDOWS\\SYSTEM32\\bcrypt.dll",
    "C:\\WINDOWS\\SYSTEM32\\WINMM.dll",
    "C:\\WINDOWS\\SYSTEM32\\WINMMBASE.dll",
    "C:\\WINDOWS\\System32\\cfgmgr32.dll",
    "C:\\WINDOWS\\System32\\IMM32.DLL",
    "C:\\WINDOWS\\System32\\powrprof.dll",
    "C:\\WINDOWS\\SYSTEM32\\CRYPTBASE.DLL",
    "C:\\WINDOWS\\System32\\bcryptPrimitives.dll",
    "C:\\WINDOWS\\system32\\uxtheme.dll",
    "C:\\WINDOWS\\System32\\combase.dll",
    "C:\\WINDOWS\\system32\\mswsock.dll",
    "C:\\WINDOWS\\System32\\kernel.appcore.dll",
    "C:\\WINDOWS\\System32\\NSI.dll",
    "C:\\WINDOWS\\SYSTEM32\\dhcpcsvc6.DLL",
    "C:\\WINDOWS\\SYSTEM32\\dhcpcsvc.DLL",
    "C:\\WINDOWS\\SYSTEM32\\DNSAPI.dll",
    "C:\\Windows\\System32\\rasadhlp.dll",
    "C:\\WINDOWS\\System32\\fwpuclnt.dll",
    "\\\\?\\E:\\xampp\\htdocs\\litegait\\Front\\node_modules\\node-sass\\vendor\\win32-x64-72\\binding.node",
    "C:\\WINDOWS\\system32\\napinsp.dll",
    "C:\\WINDOWS\\system32\\pnrpnsp.dll",
    "C:\\WINDOWS\\system32\\NLAapi.dll",
    "C:\\WINDOWS\\System32\\winrnr.dll"
  ]
}